[
    {
        "fields": {
            "term_id": "funder",
            "term_name": "funder",
            "term_ok": true,
            "term_source_version": "20150224",
            "term_source_version_responsible": "term_from_original_source",
            "term_source_version_update": "2015-02-24"
        },
        "model": "apponpersonrole_own.personrole",
        "pk": "funder"
    },
    {
        "fields": {
            "term_id": "not_specified",
            "term_name": "not specified",
            "term_ok": true,
            "term_source_version": "20150224",
            "term_source_version_responsible": "term_from_original_source",
            "term_source_version_update": "2015-02-24"
        },
        "model": "apponpersonrole_own.personrole",
        "pk": "not_specified"
    },
    {
        "fields": {
            "term_id": "not_yet_specified",
            "term_name": "not yet specified",
            "term_ok": true,
            "term_source_version": "20150224",
            "term_source_version_responsible": "term_from_original_source",
            "term_source_version_update": "2015-02-24"
        },
        "model": "apponpersonrole_own.personrole",
        "pk": "not_yet_specified"
    },
    {
        "fields": {
            "term_id": "sponser",
            "term_name": "sponser",
            "term_ok": true,
            "term_source_version": "20150224",
            "term_source_version_responsible": "term_from_original_source",
            "term_source_version_update": "2015-02-24"
        },
        "model": "apponpersonrole_own.personrole",
        "pk": "sponser"
    },
    {
        "fields": {
            "term_id": "submitter",
            "term_name": "submitter",
            "term_ok": true,
            "term_source_version": "20150224",
            "term_source_version_responsible": "term_from_original_source",
            "term_source_version_update": "2015-02-24"
        },
        "model": "apponpersonrole_own.personrole",
        "pk": "submitter"
    }
]